…
  sim_data %>% 
    t.test(mu = 0, conf.level = 0.95) %>% 
    broom::tidy() %>% 
    select(estimate, p.value)
}

# Generate 5000 datasets and apply the function
output_list =
  rerun(5000, sim(30, 0, 5)) %>%
  bind_rows()
output_list
```

    ## # A tibble: 5,000 × 2
    ##    estimate p.value
    ##       <dbl>   <dbl>
    ##  1    0.144   0.823
    ##  2    0.463   0.667
    ##  3   -0.219   0.827
    ##  4   -0.375   0.680
    ##  5   -0.796   0.259
    ##  6    0.838   0.240
    ##  7   -0.358   0.688
    ##  8   -0.546   0.505
    ##  9    0.323   0.779
    ## 10    0.974   0.247
    ## # … with 4,990 more rows
…
